regfile_trace.vcd
$version Generated by VerilatedVcd $end
$timescale 1ps $end
 $scope module TOP $end
  $var wire 1 " stall $end
  $var wire 1 # clk $end
  $var wire 1 $ rst $end
  $var wire 5 % read_addr1 [4:0] $end
  $var wire 64 & read_data1 [63:0] $end
  $var wire 5 ( read_addr2 [4:0] $end
  $var wire 64 ) read_data2 [63:0] $end
  $var wire 1 + write_en $end
  $var wire 5 , write_addr [4:0] $end
  $var wire 64 - write_data [63:0] $end
  $scope module regfile $end
   $var wire 1 " stall $end
   $var wire 1 # clk $end
   $var wire 1 $ rst $end
   $var wire 5 % read_addr1 [4:0] $end
   $var wire 64 & read_data1 [63:0] $end
   $var wire 5 ( read_addr2 [4:0] $end
   $var wire 64 ) read_data2 [63:0] $end
   $var wire 1 + write_en $end
   $var wire 5 , write_addr [4:0] $end
   $var wire 64 - write_data [63:0] $end
   $var wire 32 / i [31:0] $end
   $var wire 64 0 reg_array[31] [63:0] $end
   $var wire 64 2 reg_array[30] [63:0] $end
   $var wire 64 4 reg_array[29] [63:0] $end
   $var wire 64 6 reg_array[28] [63:0] $end
   $var wire 64 8 reg_array[27] [63:0] $end
   $var wire 64 : reg_array[26] [63:0] $end
   $var wire 64 < reg_array[25] [63:0] $end
   $var wire 64 > reg_array[24] [63:0] $end
   $var wire 64 @ reg_array[23] [63:0] $end
   $var wire 64 B reg_array[22] [63:0] $end
   $var wire 64 D reg_array[21] [63:0] $end
   $var wire 64 F reg_array[20] [63:0] $end
   $var wire 64 H reg_array[19] [63:0] $end
   $var wire 64 J reg_array[18] [63:0] $end
   $var wire 64 L reg_array[17] [63:0] $end
   $var wire 64 N reg_array[16] [63:0] $end
   $var wire 64 P reg_array[15] [63:0] $end
   $var wire 64 R reg_array[14] [63:0] $end
   $var wire 64 T reg_array[13] [63:0] $end
   $var wire 64 V reg_array[12] [63:0] $end
   $var wire 64 X reg_array[11] [63:0] $end
   $var wire 64 Z reg_array[10] [63:0] $end
   $var wire 64 \ reg_array[9] [63:0] $end
   $var wire 64 ^ reg_array[8] [63:0] $end
   $var wire 64 ` reg_array[7] [63:0] $end
   $var wire 64 b reg_array[6] [63:0] $end
   $var wire 64 d reg_array[5] [63:0] $end
   $var wire 64 f reg_array[4] [63:0] $end
   $var wire 64 h reg_array[3] [63:0] $end
   $var wire 64 j reg_array[2] [63:0] $end
   $var wire 64 l reg_array[1] [63:0] $end
   $var wire 64 n reg_array[0] [63:0] $end
  $upscope $end
 $upscope $end
$enddefinitions $end


#0
0"
0#
1$
b00000 %
b0000000000000000000000000000000000000000000000000000000000000000 &
b00000 (
b0000000000000000000000000000000000000000000000000000000000000000 )
0+
b00000 ,
b0000000000000000000000000000000000000000000000000000000000000000 -
b00000000000000000000000000000000 /
b0000000000000000000000000000000000000000000000000000000000000000 0
b0000000000000000000000000000000000000000000000000000000000000000 2
b0000000000000000000000000000000000000000000000000000000000000000 4
b0000000000000000000000000000000000000000000000000000000000000000 6
b0000000000000000000000000000000000000000000000000000000000000000 8
b0000000000000000000000000000000000000000000000000000000000000000 :
b0000000000000000000000000000000000000000000000000000000000000000 <
b0000000000000000000000000000000000000000000000000000000000000000 >
b0000000000000000000000000000000000000000000000000000000000000000 @
b0000000000000000000000000000000000000000000000000000000000000000 B
b0000000000000000000000000000000000000000000000000000000000000000 D
b0000000000000000000000000000000000000000000000000000000000000000 F
b0000000000000000000000000000000000000000000000000000000000000000 H
b0000000000000000000000000000000000000000000000000000000000000000 J
b0000000000000000000000000000000000000000000000000000000000000000 L
b0000000000000000000000000000000000000000000000000000000000000000 N
b0000000000000000000000000000000000000000000000000000000000000000 P
b0000000000000000000000000000000000000000000000000000000000000000 R
b0000000000000000000000000000000000000000000000000000000000000000 T
b0000000000000000000000000000000000000000000000000000000000000000 V
b0000000000000000000000000000000000000000000000000000000000000000 X
b0000000000000000000000000000000000000000000000000000000000000000 Z
b0000000000000000000000000000000000000000000000000000000000000000 \
b0000000000000000000000000000000000000000000000000000000000000000 ^
b0000000000000000000000000000000000000000000000000000000000000000 `
b0000000000000000000000000000000000000000000000000000000000000000 b
b0000000000000000000000000000000000000000000000000000000000000000 d
b0000000000000000000000000000000000000000000000000000000000000000 f
b0000000000000000000000000000000000000000000000000000000000000000 h
b0000000000000000000000000000000000000000000000000000000000000000 j
b0000000000000000000000000000000000000000000000000000000000000000 l
b0000000000000000000000000000000000000000000000000000000000000000 n
#1
1#
b00000000000000000000000000100000 /
#2
0#
0$
#3
1#
#4
0#
b00101 %
1+
b01010 ,
b1101111010101101101111101110111100010010001101000101011001111000 -
#5
1#
b1101111010101101101111101110111100010010001101000101011001111000 Z
#6
0#
b01010 %
b1101111010101101101111101110111100010010001101000101011001111000 &
b00000 ,
b1111111111111111111111111111111111111111111111111111111111111111 -
#7
1#
#8
0#
b00000 %
b0000000000000000000000000000000000000000000000000000000000000000 &
0+
b01111 ,
b0000000000000000000000000000000011001010111111101011101010111110 -
#9
1#
#10
0#
b01111 %
1+
b01011 ,
b0001000100010001000100010001000100010001000100010001000100010001 -
#11
1#
b0001000100010001000100010001000100010001000100010001000100010001 X
#12
0#
b01010 %
b1101111010101101101111101110111100010010001101000101011001111000 &
b01011 (
b0001000100010001000100010001000100010001000100010001000100010001 )
0+
